<?xml version="1.0" encoding="utf-8"?>
<!-- Generator: Adobe Illustrator 25.4.1, SVG Export Plug-In . SVG Version: 6.00 Build 0)  -->
<svg version="1.1" id="Layer_1" xmlns="http://www.w3.org/2000/svg" xmlns:xlink="http://www.w3.org/1999/xlink" x="0px" y="0px"
	 viewBox="0 0 48 48" style="enable-background:new 0 0 48 48;" xml:space="preserve">
<style type="text/css">
	.st0{fill:url(#SVGID_1_);}
	.st1{fill:#F3F3F3;}
</style>
<g id="Layer_2_00000177477450192010267180000005727645419611392952_">
	
		<linearGradient id="SVGID_1_" gradientUnits="userSpaceOnUse" x1="3.4869" y1="37.237" x2="44.5131" y2="13.5504" gradientTransform="matrix(1 0 0 -1 0 49.3937)">
		<stop  offset="0" style="stop-color:#FFFFFF"/>
		<stop  offset="0.7545" style="stop-color:#F5F5F5"/>
		<stop  offset="0.9973" style="stop-color:#F5F5F5"/>
	</linearGradient>
	<polygon class="st0" points="45,35 3,35 3,13 45,13 	"/>
</g>
<g>
	<path id="outline_5_" class="st1" d="M45,12H3c-1,0-1,1-1,1v22c0,0,0,1,1,1h42c1,0,1-1,1-1V13C46,13,46,12,45,12z M44,34H4V14h40
		V34z"/>
	<circle class="st1" cx="12" cy="24" r="4"/>
	<circle class="st1" cx="24" cy="24" r="4"/>
	<circle class="st1" cx="36" cy="24" r="4"/>
</g>
</svg>
