<?xml version="1.0" encoding="UTF-8"?>
<!-- Generated by Pixelmator Pro 3.4.3 -->
<svg width="48" height="48" viewBox="0 0 48 48" xmlns="http://www.w3.org/2000/svg">
    <path id="Rectangle" fill="#f0f0f0" fill-rule="evenodd" stroke="#b3b3b3" stroke-width="2" d="M 1 47 L 47 47 L 47 1 L 1 1 Z"/>
    <g id="arrowright16x16b">
        <path id="path4" fill="#4a4a4a" stroke="none" d="M 14 22 L 24 22 L 24 24 L 14 24 Z"/>
        <path id="path5" fill="#4a4a4a" stroke="none" d="M 34 23 L 24 17 L 24 29 Z"/>
    </g>
</svg>
