<?xml version="1.0" encoding="UTF-8"?>
<!-- Generated by Pixelmator Pro 3.4.3 -->
<svg width="48" height="48" viewBox="0 0 48 48" xmlns="http://www.w3.org/2000/svg">
    <path id="Rectangle" fill="#f0f0f0" fill-rule="evenodd" stroke="#b3b3b3" stroke-width="2" d="M 1 47 L 47 47 L 47 1 L 1 1 Z"/>
    <path id="minus16x16b" fill="#4a4a4a" stroke="none" d="M 16 22 L 32 22 L 32 26 L 16 26 Z"/>
</svg>
