<?xml version="1.0" encoding="UTF-8"?>
<svg xmlns="http://www.w3.org/2000/svg" xmlns:xlink="http://www.w3.org/1999/xlink" width="32px" height="32px" viewBox="0 0 32 32" x="0px" y="0px" version="1.1">
  <defs/>
  <g>
    <rect x="16" y="18" width="10" height="2" fill="#ffffff" stroke="#ffffff" stroke-width="0"/>
    <rect x="16" y="24" width="10" height="2" fill="#ffffff" stroke="#ffffff" stroke-width="0"/>
    <rect x="4" y="2" width="2" height="28" fill="#ffffff" stroke="#ffffff" stroke-width="0"/>
    <rect x="6" y="6" width="10" height="2" fill="#ffffff" stroke="#ffffff" stroke-width="0"/>
    <rect x="6" y="12" width="10" height="2" fill="#ffffff" stroke="#ffffff" stroke-width="0"/>
    <rect x="14" y="14" width="2" height="12" fill="#ffffff" stroke="#ffffff" stroke-width="0"/>
    <rect x="6" y="28" width="10" height="2" fill="#ffffff" stroke="#ffffff" stroke-width="0"/>
  </g>
</svg>
