<?xml version="1.0" encoding="utf-8"?>
<!-- Generator: Adobe Illustrator 19.2.1, SVG Export Plug-In . SVG Version: 6.00 Build 0)  -->
<svg version="1.1" id="Layer_1" xmlns="http://www.w3.org/2000/svg" xmlns:xlink="http://www.w3.org/1999/xlink" x="0px" y="0px"
	 viewBox="0 0 32 32" style="enable-background:new 0 0 32 32;" xml:space="preserve">
<style type="text/css">
	.st0{fill:#E40015;}
</style>
<g>
	<path class="st0" d="M27,19H5c0,0-1,0-1-1v-4c0-1,1-1,1-1h22c0,0,1,0,1,1v4C28,19,27,19,27,19z"/>
</g>
</svg>
