<?xml version="1.0" encoding="UTF-8"?>
<svg xmlns="http://www.w3.org/2000/svg" xmlns:xlink="http://www.w3.org/1999/xlink" width="32px" height="32px" viewBox="0 0 32 32" x="0px" y="0px" version="1.1">
  <defs/>
  <g>
    <path d="M27,19H5c0,0-1,0-1-1v-4c0-1,1-1,1-1h22c0,0,1,0,1,1v4C28,19,27,19,27,19z" fill="#E40015"/>
  </g>
</svg>
