<?xml version="1.0" encoding="utf-8"?>
<!-- Generator: Adobe Illustrator 25.4.1, SVG Export Plug-In . SVG Version: 6.00 Build 0)  -->
<svg version="1.1" id="Layer_1" xmlns="http://www.w3.org/2000/svg" xmlns:xlink="http://www.w3.org/1999/xlink" x="0px" y="0px"
	 viewBox="0 0 32 32" style="enable-background:new 0 0 32 32;" xml:space="preserve">
<style type="text/css">
	.st0{fill:#F3F3F3;}
</style>
<path class="st0" d="M28.2,6H3.8C2.8,6,2,6.8,2,7.8v16.3c0,1,0.8,1.8,1.8,1.8h24.3c1,0,1.8-0.8,1.8-1.8V7.8C30,6.8,29.2,6,28.2,6z
	 M18,22v-4H8v-4h10v-4l7,6L18,22z"/>
</svg>
