<?xml version="1.0" encoding="utf-8"?>
<!-- Generator: Adobe Illustrator 21.0.0, SVG Export Plug-In . SVG Version: 6.00 Build 0)  -->
<svg version="1.1" id="Layer_3" xmlns="http://www.w3.org/2000/svg" xmlns:xlink="http://www.w3.org/1999/xlink" x="0px" y="0px"
	 viewBox="0 0 48 48" style="enable-background:new 0 0 48 48;" xml:space="preserve">
<style type="text/css">
	.st0{fill:#F3F3F3;}
</style>
<rect x="10" y="18" class="st0" width="6" height="22"/>
<circle class="st0" cx="13" cy="13" r="3"/>
<path class="st0" d="M26,19v-1h-6v22h6V25.1c0-0.6,0.5-1.1,1.1-1.1h3c1.1,0,1.9,0.9,1.9,1.9V40h6V23.5c0-3.1-2.5-5.5-5.5-5.5
	C32.5,18,27,18,26,19z"/>
</svg>
