<?xml version="1.0" encoding="utf-8"?>
<!-- Generator: Adobe Illustrator 21.0.0, SVG Export Plug-In . SVG Version: 6.00 Build 0)  -->
<svg version="1.1" id="Layer_1" xmlns="http://www.w3.org/2000/svg" xmlns:xlink="http://www.w3.org/1999/xlink" x="0px" y="0px"
	 viewBox="0 0 32 32" style="enable-background:new 0 0 32 32;" xml:space="preserve">
<style type="text/css">
	.st0{fill:#00B1FF;}
	.st1{fill:#4A4A4A;}
</style>
<rect x="2" y="20" class="st0" width="28" height="4"/>
<rect x="4" y="26" class="st1" width="10" height="2"/>
<rect x="4" y="16" class="st1" width="12" height="2"/>
<rect x="4" y="12" class="st1" width="14" height="2"/>
<rect x="4" y="8" class="st1" width="12" height="2"/>
<rect x="4" y="4" class="st1" width="14" height="2"/>
<rect x="21" y="26" class="st1" width="7" height="2"/>
<rect x="23" y="16" class="st1" width="5" height="2"/>
<rect x="23" y="12" class="st1" width="5" height="2"/>
<rect x="23" y="8" class="st1" width="5" height="2"/>
<rect x="23" y="4" class="st1" width="5" height="2"/>
</svg>
