<?xml version="1.0" encoding="utf-8"?>
<!-- Generator: Adobe Illustrator 26.0.2, SVG Export Plug-In . SVG Version: 6.00 Build 0)  -->
<svg version="1.1" id="Layer_1" xmlns="http://www.w3.org/2000/svg" xmlns:xlink="http://www.w3.org/1999/xlink" x="0px" y="0px"
	 viewBox="0 0 32 32" style="enable-background:new 0 0 32 32;" xml:space="preserve">
<style type="text/css">
	.st0{fill:#4A4A4A;}
</style>
<rect x="2" y="18" class="st0" width="12" height="4"/>
<polygon class="st0" points="24,20 14,14 14,26 "/>
<polygon class="st0" points="22,8 22,4 14,8 14,4 4,9 4,16 6,16 6,11 12,8 12,11 14,11 20,8 20,11 22,11 28,8 28,28 6,28 6,24 4,24 
	4,30 30,30 30,4 "/>
</svg>
