<?xml version="1.0" encoding="UTF-8"?>
<!-- Generator: Adobe Illustrator 19.2.1, SVG Export Plug-In . SVG Version: 6.00 Build 0)  -->
<svg xmlns="http://www.w3.org/2000/svg" xmlns:xlink="http://www.w3.org/1999/xlink" version="1.1" x="0px" y="0px" viewBox="0 0 48 48" style="enable-background:new 0 0 48 48;" xml:space="preserve">
<style type="text/css">
	.st0{display:none;}
	.st1{display:inline;fill:url(#SVGID_1_);}
	.st2{display:inline;}
	.st3{fill:#4A4A4A;}
	.st4{display:inline;fill:#4A4A4A;}
	.st5{fill:#1C8BE9;}
	.st6{display:inline;fill:#E05A00;}
	.st7{fill:#F3F3F3;}
</style>



<g id="Layer_4">
	<rect x="19.5" y="21.4" transform="matrix(0.9323 0.3617 -0.3617 0.9323 12.4184 -5.4741)" class="st7" width="2.6" height="18"/>
	<polygon class="st7" points="11.9,23.8 7.6,28.1 5.5,30.2 7.6,32.3 11.9,36.5 14,34.4 9.8,30.2 14,25.9  "/>
	<polygon class="st7" points="30.6,23.8 34.9,28.1 37,30.2 34.9,32.3 30.6,36.5 28.5,34.4 32.8,30.2 28.5,25.9  "/>
</g>
</svg>
