<?xml version="1.0" encoding="UTF-8"?>
<!-- Generated by Pixelmator Pro 3.4.3 -->
<svg width="48" height="48" viewBox="0 0 48 48" xmlns="http://www.w3.org/2000/svg">
    <g id="numbers">
        <path id="7" fill="#f3f3f3" fill-rule="evenodd" stroke="none" d="M 27.18335 14.786133 L 23.609619 23 L 21.673584 23 L 25.253662 15.243164 L 20.657959 15.243164 L 20.657959 13.757813 L 27.18335 13.757813 Z"/>
    </g>
</svg>
