<?xml version="1.0" encoding="UTF-8"?>
<!-- Generated by Pixelmator Pro 3.4.3 -->
<svg width="48" height="48" viewBox="0 0 48 48" xmlns="http://www.w3.org/2000/svg">
    <g id="letters">
        <path id="E" fill="#f3f3f3" fill-rule="evenodd" stroke="none" d="M 26.729492 17.994629 L 23.073242 17.994629 L 23.073242 20.470215 L 27.364258 20.470215 L 27.364258 22 L 21.168945 22 L 21.168945 12.757813 L 27.351563 12.757813 L 27.351563 14.300293 L 23.073242 14.300293 L 23.073242 16.50293 L 26.729492 16.50293 Z"/>
    </g>
</svg>
