<?xml version="1.0" encoding="UTF-8"?>
<!-- Generated by Pixelmator Pro 3.4.3 -->
<svg width="48" height="48" viewBox="0 0 48 48" xmlns="http://www.w3.org/2000/svg">
    <g id="letters">
        <path id="F" fill="#f3f3f3" fill-rule="evenodd" stroke="none" d="M 26.824707 18.223145 L 23.168457 18.223145 L 23.168457 22 L 21.26416 22 L 21.26416 12.757813 L 27.281738 12.757813 L 27.281738 14.300293 L 23.168457 14.300293 L 23.168457 16.687012 L 26.824707 16.687012 Z"/>
    </g>
</svg>
