<?xml version="1.0" encoding="utf-8"?>
<!-- Generator: Adobe Illustrator 19.2.1, SVG Export Plug-In . SVG Version: 6.00 Build 0)  -->
<svg version="1.1" id="Layer_1" xmlns="http://www.w3.org/2000/svg" xmlns:xlink="http://www.w3.org/1999/xlink" x="0px" y="0px"
	 viewBox="0 0 32 32" style="enable-background:new 0 0 32 32;" xml:space="preserve">
<style type="text/css">
	.st0{fill:#4A4A4A;}
</style>
<rect x="6" y="6" class="st0" width="24" height="2"/>
<rect x="10" y="12" class="st0" width="20" height="2"/>
<rect x="14" y="18" class="st0" width="16" height="2"/>
<rect x="18" y="24" class="st0" width="12" height="2"/>
</svg>
