<?xml version="1.0" encoding="utf-8"?>
<!-- Generator: Adobe Illustrator 22.1.0, SVG Export Plug-In . SVG Version: 6.00 Build 0)  -->
<svg version="1.1" id="Layer_1" xmlns="http://www.w3.org/2000/svg" xmlns:xlink="http://www.w3.org/1999/xlink" x="0px" y="0px"
	 viewBox="0 0 32 32" style="enable-background:new 0 0 32 32;" xml:space="preserve">
<style type="text/css">
	.st0{fill:#4A4A4A;}
</style>
<path class="st0" d="M12.2,8.7l7.3,7.3l-7.3,7.3c-0.6,0.6-0.6,1.7,0,2.3l0.1,0.1c0.6,0.6,1.7,0.6,2.3,0l7.3-7.3l2.4-2.4l-2.4-2.4
	l-7.3-7.3c-0.6-0.6-1.7-0.6-2.3,0l-0.1,0.1C11.5,7,11.5,8.1,12.2,8.7z"/>
</svg>
