<?xml version="1.0" encoding="UTF-8"?>
<!-- Generated by Pixelmator Pro 3.4.2 -->
<svg width="32" height="32" viewBox="0 0 32 32" xmlns="http://www.w3.org/2000/svg">
    <g id="Layer21">
        <path id="Ellipse" fill="#4a4a4a" fill-rule="evenodd" stroke="none" d="M 25 16 C 25 11.029438 20.970562 7 16 7 C 11.029437 7 7 11.029438 7 16 C 7 20.970562 11.029437 25 16 25 C 20.970562 25 25 20.970562 25 16 Z"/>
    </g>
</svg>
