<?xml version="1.0" encoding="utf-8"?>
<!-- Generator: Adobe Illustrator 19.2.1, SVG Export Plug-In . SVG Version: 6.00 Build 0)  -->
<svg version="1.1" id="Layer_1" xmlns="http://www.w3.org/2000/svg" xmlns:xlink="http://www.w3.org/1999/xlink" x="0px" y="0px"
	 viewBox="0 0 48 48" style="enable-background:new 0 0 48 48;" xml:space="preserve">
<style type="text/css">
	.st0{fill:#F3F3F3;}
</style>
<path class="st0" d="M34,36l-3,3c-4,3.4-10.3,3.7-14,0l-1.9-2.4c-3.3-3.7-3.3-7.5-0.7-11.7L24,8l10,16.8C36.1,28.3,36.4,32.8,34,36z
	"/>
</svg>
