<?xml version="1.0" encoding="utf-8"?>
<!-- Generator: Adobe Illustrator 19.2.1, SVG Export Plug-In . SVG Version: 6.00 Build 0)  -->
<svg version="1.1" id="Layer_1" xmlns="http://www.w3.org/2000/svg" xmlns:xlink="http://www.w3.org/1999/xlink" x="0px" y="0px"
	 viewBox="0 0 96 96" style="enable-background:new 0 0 96 96;" xml:space="preserve">
<style type="text/css">
	.st0{fill:#FFFFFF;stroke:#4D4D4D;stroke-width:6;stroke-miterlimit:10;}
	.st1{fill:#4D4D4D;}
</style>
<circle class="st0" cx="48" cy="50.5" r="39"/>
<g>
	<g>
		<path class="st1" d="M87,51c0-21.5-17.5-39-39-39v78C69.5,90,87,72.5,87,51z"/>
	</g>
</g>
</svg>
