<?xml version="1.0" encoding="utf-8"?>
<!-- Generator: Adobe Illustrator 27.2.0, SVG Export Plug-In . SVG Version: 6.00 Build 0)  -->
<svg version="1.1" id="Layer_1" xmlns="http://www.w3.org/2000/svg" xmlns:xlink="http://www.w3.org/1999/xlink" x="0px" y="0px"
	 viewBox="0 0 48 48" style="enable-background:new 0 0 48 48;" xml:space="preserve">
<style type="text/css">
	.st0{fill:#4A4A4A;}
	.st1{fill:#1F7F46;}
</style>
<g id="Layer_1_00000089556109592396142070000012246401422968720827_">
</g>
<g id="Layer_2_00000078010195780798134640000014690739915577202582_">
	<rect x="6" y="36" class="st0" width="36" height="4"/>
	<rect x="6" y="28" class="st0" width="4" height="8"/>
	<rect x="38" y="28" class="st0" width="4" height="8"/>
	<rect x="22" y="4" class="st1" width="4" height="20"/>
	<polygon class="st1" points="24,32 15,20 33,20 	"/>
</g>
</svg>
