<?xml version="1.0" encoding="UTF-8"?>
<svg xmlns="http://www.w3.org/2000/svg" xmlns:xlink="http://www.w3.org/1999/xlink" width="32px" height="32px" viewBox="0 0 32 32" x="0px" y="0px" version="1.1">
  <defs/>
  <g>
    <circle cx="16" cy="16" r="12" fill="none" stroke="#ffffff" stroke-width="2.2"/>
    <path d="M18,23c0,0.553-0.447,1-1,1h-2c-0.552,0-1-0.447-1-1v-9c0-0.552,0.448-1,1-1h2c0.553,0,1,0.448,1,1V23z" fill="#ffffff" stroke="#ffffff" stroke-width="0"/>
    <circle cx="16" cy="9.875" r="2" fill="#ffffff" stroke="#ffffff" stroke-width="0"/>
  </g>
</svg>
