<?xml version="1.0" encoding="utf-8"?>
<!-- Generator: Adobe Illustrator 19.2.1, SVG Export Plug-In . SVG Version: 6.00 Build 0)  -->
<svg version="1.1" id="Layer_1" xmlns="http://www.w3.org/2000/svg" xmlns:xlink="http://www.w3.org/1999/xlink" x="0px" y="0px"
	 viewBox="0 0 48 48" style="enable-background:new 0 0 48 48;" xml:space="preserve">
<style type="text/css">
	.st0{fill:#4A4A4A;}
</style>
<rect x="10" y="4" class="st0" width="4" height="40"/>
<rect x="4" y="34" class="st0" width="28" height="4"/>
<rect x="16" y="10" class="st0" width="28" height="4"/>
<rect x="34" y="4" class="st0" width="4" height="40"/>
<rect x="4" y="10" class="st0" width="4" height="4"/>
<rect x="34" y="41" class="st0" width="4" height="3"/>
<rect x="40" y="34" class="st0" width="4" height="4"/>
<rect x="18" y="18" class="st0" width="12" height="12"/>
</svg>
