<?xml version="1.0" encoding="utf-8"?>
<!-- Generator: Adobe Illustrator 19.2.1, SVG Export Plug-In . SVG Version: 6.00 Build 0)  -->
<svg version="1.1" id="Layer_1" xmlns="http://www.w3.org/2000/svg" xmlns:xlink="http://www.w3.org/1999/xlink" x="0px" y="0px"
	 viewBox="0 0 32 32" style="enable-background:new 0 0 32 32;" xml:space="preserve">
<style type="text/css">
	.st0{fill:#0592E1;}
</style>
<g id="Layer_2_1_">
	<path class="st0" d="M18,16v16h14V16H18z M30,30H20V18h10V30z"/>
	<polygon class="st0" points="12,12 12,28 16,28 16,26 14,26 14,14 16,14 24,14 26,14 26,12 	"/>
</g>
</svg>
