<?xml version="1.0" encoding="utf-8"?>
<!-- Generator: Adobe Illustrator 21.0.0, SVG Export Plug-In . SVG Version: 6.00 Build 0)  -->
<svg version="1.1" id="Layer_1" xmlns="http://www.w3.org/2000/svg" xmlns:xlink="http://www.w3.org/1999/xlink" x="0px" y="0px"
	 viewBox="0 0 48 48" style="enable-background:new 0 0 48 48;" xml:space="preserve">
<style type="text/css">
	.st0{fill:#F3F3F3;}
</style>
<rect x="25" y="26" class="st0" width="21" height="2"/>
<rect x="24" y="44" class="st0" width="22" height="2"/>
<rect x="44" y="27" class="st0" width="2" height="17"/>
<polygon class="st0" points="28,34 37,34 37,30 43,36 37,42 37,38 28,38 "/>
<rect x="24" y="26" class="st0" width="2" height="18"/>
</svg>
