<?xml version="1.0" encoding="utf-8"?>
<!-- Generator: Adobe Illustrator 21.0.0, SVG Export Plug-In . SVG Version: 6.00 Build 0)  -->
<svg version="1.1" id="Layer_3" xmlns="http://www.w3.org/2000/svg" xmlns:xlink="http://www.w3.org/1999/xlink" x="0px" y="0px"
	 viewBox="0 0 32 32" enable-background="new 0 0 32 32" xml:space="preserve">
<circle fill="#FAFAFA" cx="25" cy="27" r="3"/>
<circle fill="#FAFAFA" cx="25" cy="17" r="3"/>
<circle fill="#FAFAFA" cx="15" cy="22" r="3"/>
<polygon fill="#FAFAFA" points="16,23 24,18 24,16 16,21 "/>
<polygon fill="#FAFAFA" points="16,23 24,28 24,26 16,21 "/>
</svg>
