<?xml version="1.0" encoding="utf-8"?>
<!-- Generator: Adobe Illustrator 27.2.0, SVG Export Plug-In . SVG Version: 6.00 Build 0)  -->
<svg version="1.1" id="Layer_1" xmlns="http://www.w3.org/2000/svg" xmlns:xlink="http://www.w3.org/1999/xlink" x="0px" y="0px"
	 viewBox="0 0 48 48" style="enable-background:new 0 0 48 48;" xml:space="preserve">
<style type="text/css">
	.st0{fill:#2663BC;}
</style>
<g id="Layer_2_00000003825349668414897900000008344305342924603553_">
	<g>
		<g>
			<path id="arrow" class="st0" d="M24.6,15.5c-0.2-0.3-0.5-0.5-0.8-0.5s-0.6,0.2-0.8,0.5l-5.8,9c-0.3,0.3-0.3,0.8-0.1,1
				c0.2,0.3,0.5,0.5,0.9,0.5h4v11c0,1,0.8,1,2,1c1.3,0,1.9-0.1,2-1V26h4.1c0.3,0,0.6,0,0.8-0.5c0.2-0.3,0.2-0.8-0.1-1.1L24.6,15.5z"
				/>
		</g>
	</g>
</g>
</svg>
