<?xml version="1.0" encoding="UTF-8"?>
<!-- Generator: Adobe Illustrator 19.2.1, SVG Export Plug-In . SVG Version: 6.00 Build 0)  -->
<svg xmlns="http://www.w3.org/2000/svg" xmlns:xlink="http://www.w3.org/1999/xlink" version="1.1" x="0px" y="0px" viewBox="0 0 32 32" style="enable-background:new 0 0 32 32;" xml:space="preserve">
<style type="text/css">
	.st0{display:none;}
	.st1{display:inline;}
	.st2{fill:#4A4A4A;}
	.st3{display:inline;fill:#4A4A4A;}
	.st4{fill:#0592E1;}
	.st5{display:inline;enable-background:new    ;}
	.st6{enable-background:new    ;}
</style>

<g id="Layer_5">
	<rect x="10" y="10" class="st4" width="4" height="4"/>
	<rect x="18" y="10" class="st4" width="4" height="4"/>
	<rect x="6" y="14" class="st4" width="4" height="4"/>
	<rect x="14" y="14" class="st4" width="4" height="4"/>
	<rect x="22" y="14" class="st4" width="4" height="4"/>
	<rect x="10" y="18" class="st4" width="4" height="4"/>
	<rect x="18" y="18" class="st4" width="4" height="4"/>
	<rect x="6" y="22" class="st4" width="4" height="4"/>
	<rect x="14" y="22" class="st4" width="4" height="4"/>
	<rect x="22" y="22" class="st4" width="4" height="4"/>
	<rect x="10" y="26" class="st4" width="4" height="2"/>
	<rect x="18" y="26" class="st4" width="4" height="2"/>
</g>



</svg>
