<?xml version="1.0" encoding="UTF-8"?>
<!-- Generator: Adobe Illustrator 19.2.1, SVG Export Plug-In . SVG Version: 6.00 Build 0)  -->
<svg xmlns="http://www.w3.org/2000/svg" xmlns:xlink="http://www.w3.org/1999/xlink" version="1.1" id="Layer_1" x="0px" y="0px" viewBox="0 0 48 48" style="enable-background:new 0 0 48 48;" xml:space="preserve">
<style type="text/css">
	.st0{display:none;}
	.st1{display:inline;fill:#4A4A4A;}
	.st2{display:inline;}
	.st3{fill:#E40015;}
	.st4{fill:#289224;}
</style>


<g id="Layer_3">
	<g>
		<g transform="scale(2) translate(-15 -2)">
			<path id="checkmark" class="st4" d="M28.3,24.5c0.2,0.4,0.7,0.5,1.1,0.5l0,0l0,0c0.5,0,0.8-0.2,1.1-0.6l8.3-10.4     c0.5-0.6,0.4-1.6-0.2-2c-0.6-0.5-1.6-0.4-2,0.2l-7.2,9l-3.4-4.1c-0.4-0.5-1.3-0.6-1.9-0.1c-0.6,0.5-0.7,1.4-0.1,2L28.3,24.5z"/>
		</g>
	</g>
</g>
</svg>
