<?xml version="1.0" encoding="utf-8"?>
<!-- Generator: Adobe Illustrator 25.2.1, SVG Export Plug-In . SVG Version: 6.00 Build 0)  -->
<svg version="1.1" id="Layer_2_1_" xmlns="http://www.w3.org/2000/svg" xmlns:xlink="http://www.w3.org/1999/xlink" x="0px" y="0px"
	 viewBox="0 0 32 32" style="enable-background:new 0 0 32 32;" xml:space="preserve">
<style type="text/css">
	.st0{fill:#4A4A4A;}
</style>
<rect x="14" y="6" class="st0" width="2" height="22"/>
<polygon class="st0" points="24,10 16,14 16,6 "/>
<path class="st0" d="M20,28H10v-1c0-2.8,2.2-5,5-5l0,0c2.8,0,5,2.2,5,5V28z"/>
</svg>
