<?xml version="1.0" encoding="utf-8"?>
<!-- Generator: Adobe Illustrator 21.0.0, SVG Export Plug-In . SVG Version: 6.00 Build 0)  -->
<svg version="1.1" id="Layer_1" xmlns="http://www.w3.org/2000/svg" xmlns:xlink="http://www.w3.org/1999/xlink" x="0px" y="0px"
	 viewBox="0 0 32 32" style="enable-background:new 0 0 32 32;" xml:space="preserve">
<style type="text/css">
	.st0{fill:#4A4A4A;}
</style>
<rect x="13.5" y="0.5" transform="matrix(0.7071 -0.7071 0.7071 0.7071 -6.7735 15.6463)" class="st0" width="4" height="31"/>
<rect x="0" y="14" transform="matrix(0.7071 -0.7071 0.7071 0.7071 -6.7738 15.6468)" class="st0" width="31" height="4"/>
</svg>
