<?xml version="1.0" encoding="UTF-8"?>
<!-- Generator: Adobe Illustrator 19.2.1, SVG Export Plug-In . SVG Version: 6.00 Build 0)  -->
<svg xmlns="http://www.w3.org/2000/svg" xmlns:xlink="http://www.w3.org/1999/xlink" version="1.1" x="0px" y="0px" viewBox="0 0 48 48" style="enable-background:new 0 0 48 48;" xml:space="preserve">
<style type="text/css">
	.st0{display:none;}
	.st1{display:inline;}
	.st2{fill:#EFEFEF;}
	.st3{fill:#F3F3F3;}
</style>

<g id="Layer_2">
	<rect x="6" y="22" transform="matrix(-0.7071 -0.7071 0.7071 -0.7071 24 57.9411)" class="st3" width="36" height="4"/>
	<rect x="6" y="22" transform="matrix(0.7071 -0.7071 0.7071 0.7071 -9.9411 24)" class="st3" width="36" height="4"/>
</g>
</svg>
