<?xml version="1.0" encoding="utf-8"?>
<!-- Generator: Adobe Illustrator 19.2.1, SVG Export Plug-In . SVG Version: 6.00 Build 0)  -->
<svg version="1.1" id="Layer_1" xmlns="http://www.w3.org/2000/svg" xmlns:xlink="http://www.w3.org/1999/xlink" x="0px" y="0px"
	 viewBox="0 0 48 48" style="enable-background:new 0 0 48 48;" xml:space="preserve">
<style type="text/css">
	.st0{fill:#4A4A4A;}
</style>
<g>
	<g>
		<path id="folder-outline" class="st0" d="M45,4H30l-8,8H0v29.2C0,42.9,1.1,44,3,44c0,0,40.5,0,42,0s3-1.4,3-2.9V7
			C48,5.5,46.5,4,45,4z M4,40V16h20l8-8h12v32H4z"/>
	</g>
</g>
<path class="st0" d="M2,4L2,4C0.9,4,0,4.9,0,6v2h20l4-4H2z"/>
</svg>
