<?xml version="1.0" encoding="utf-8"?>
<!-- Generator: Adobe Illustrator 21.0.0, SVG Export Plug-In . SVG Version: 6.00 Build 0)  -->
<svg version="1.1" id="Layer_1" xmlns="http://www.w3.org/2000/svg" xmlns:xlink="http://www.w3.org/1999/xlink" x="0px" y="0px"
	 viewBox="0 0 48 48" style="enable-background:new 0 0 48 48;" xml:space="preserve">
<style type="text/css">
	.st0{fill:#F3F3F3;}
</style>
<rect x="6" y="10" class="st0" width="36" height="2"/>
<rect x="6" y="4" class="st0" width="36" height="2"/>
<rect x="6" y="16" class="st0" width="36" height="2"/>
<rect x="6" y="22" class="st0" width="36" height="2"/>
<rect x="6" y="28" class="st0" width="36" height="2"/>
<rect x="6" y="22" class="st0" width="36" height="2"/>
<rect x="6" y="28" class="st0" width="36" height="2"/>
<rect x="6" y="34" class="st0" width="36" height="2"/>
<rect x="6" y="40" class="st0" width="36" height="2"/>
</svg>
