<?xml version="1.0" encoding="UTF-8"?>
<!-- Generated by Pixelmator Pro 3.4.3 -->
<svg width="48" height="48" viewBox="0 0 48 48" xmlns="http://www.w3.org/2000/svg">
    <path id="black" fill="#4a4a4a" fill-rule="evenodd" stroke="none" d="M 24 39 C 24 39 12 26.887897 12 18.435547 C 12 9.9832 15.843188 6 24 6 C 32.156815 6 36 9.9832 36 18.435547 C 36 26.887897 24 39 24 39 Z M 24 24 C 27.313705 24 30 21.313705 30 18 C 30 14.686295 27.313705 12 24 12 C 20.686295 12 18 14.686295 18 18 C 18 21.313705 20.686295 24 24 24 Z"/>
</svg>
