<?xml version="1.0" encoding="utf-8"?>
<!-- Generator: Adobe Illustrator 27.5.0, SVG Export Plug-In . SVG Version: 6.00 Build 0)  -->
<svg version="1.1" id="Layer_1" xmlns="http://www.w3.org/2000/svg" xmlns:xlink="http://www.w3.org/1999/xlink" x="0px" y="0px"
	 viewBox="0 0 32 32" style="enable-background:new 0 0 32 32;" xml:space="preserve">
<style type="text/css">
	.st0{fill:#4A4A4A;}
</style>
<rect x="16" y="2" class="st0" width="2" height="28"/>
<polygon class="st0" points="14,8 4,8 2,5 4,2 14,2 "/>
<polygon class="st0" points="14,16 4,16 2,13 4,10 14,10 "/>
<polygon class="st0" points="20,4 30,4 32,7 30,10 20,10 "/>
</svg>
