<?xml version="1.0" encoding="utf-8"?>
<!-- Generator: Adobe Illustrator 21.0.0, SVG Export Plug-In . SVG Version: 6.00 Build 0)  -->
<svg version="1.1" id="Layer_3" xmlns="http://www.w3.org/2000/svg" xmlns:xlink="http://www.w3.org/1999/xlink" x="0px" y="0px"
	 viewBox="0 0 48 48" style="enable-background:new 0 0 48 48;" xml:space="preserve">
<style type="text/css">
	.st0{fill:#4A4A4A;}
</style>
<rect x="22" y="8" class="st0" width="4" height="32"/>
<polygon class="st0" points="20,16 5,16 3,12 5,8 20,8 "/>
<polygon class="st0" points="28,18 43,18 45,14 43,10 28,10 "/>
<polygon class="st0" points="20,26 5,26 3,22 5,18 20,18 "/>
</svg>
