<?xml version="1.0" encoding="utf-8"?>
<!-- Generator: Adobe Illustrator 25.2.1, SVG Export Plug-In . SVG Version: 6.00 Build 0)  -->
<svg version="1.1" id="Layer_2_1_" xmlns="http://www.w3.org/2000/svg" xmlns:xlink="http://www.w3.org/1999/xlink" x="0px" y="0px"
	 viewBox="0 0 32 32" style="enable-background:new 0 0 32 32;" xml:space="preserve">
<style type="text/css">
	.st0{fill:#198BD8;}
	.st1{fill:#4A4A4A;}
</style>
<rect x="2" y="10" class="st0" width="26" height="6"/>
<g>
	<g>
		<path class="st1" d="M2,26v6h26v-6H2z M26,30H4v-2h22V30z"/>
	</g>
</g>
<g>
	<g>
		<path class="st1" d="M2,18v6h26v-6H2z M26,22H4v-2h22V22z"/>
	</g>
</g>
<g>
	<g>
		<path class="st1" d="M2,2v6h26V2H2z M26,6H4V4h22V6z"/>
	</g>
</g>
</svg>
