<?xml version="1.0" encoding="utf-8"?>
<!-- Generator: Adobe Illustrator 24.1.2, SVG Export Plug-In . SVG Version: 6.00 Build 0)  -->
<svg version="1.1" id="Layer_1" xmlns="http://www.w3.org/2000/svg" xmlns:xlink="http://www.w3.org/1999/xlink" x="0px" y="0px"
	 viewBox="0 0 32 32" style="enable-background:new 0 0 32 32;" xml:space="preserve">
<style type="text/css">
	.st0{fill:#4A4A4A;}
	.st1{fill:#1AA9E8;}
</style>
<rect x="6" y="20" class="st0" width="20" height="2"/>
<rect x="4" y="12" class="st0" width="2" height="16"/>
<rect x="26" y="12" class="st0" width="2" height="16"/>
<g>
	<g>
		<polygon class="st0" points="28,6 4,6 2,12 30,12 		"/>
	</g>
</g>
<rect x="6" y="6" class="st1" width="2" height="6"/>
<rect x="10" y="6" class="st1" width="2" height="6"/>
<rect x="14" y="6" class="st1" width="2" height="6"/>
<rect x="18" y="6" class="st1" width="2" height="6"/>
<rect x="22" y="6" class="st1" width="2" height="6"/>
<rect x="26" y="6" class="st1" width="2" height="6"/>
</svg>
